[
    {
        "name": "science"
    },
    {
        "name": "engineering"
    },
    {
        "name": "business"
    },
    {
        "name": "humanities and social science"
    },
    {
        "name": "other"
    }
]
